<svg xmlns="http://www.w3.org/2000/svg" xmlns:xlink="http://www.w3.org/1999/xlink" width="80.5" height="33" viewBox="0 0 80.5 33">
  <defs>
    <style>
      .cls-1, .cls-2 {
        fill: #fdac1f;
      }

      .cls-1 {
        fill-opacity: 0;
        stroke-width: 1px;
        stroke: url(#linear-gradient);
      }

      .cls-3 {
        fill: url(#linear-gradient-2);
      }
    </style>
    <linearGradient id="linear-gradient" x1="64" y1="32.5" x2="64" y2="0.5" gradientUnits="userSpaceOnUse">
      <stop offset="0" stop-color="#0d78ff"/>
      <stop offset="1" stop-color="#54a2ff"/>
    </linearGradient>
    <linearGradient id="linear-gradient-2" x1="0" y1="17" x2="37" y2="17" xlink:href="#linear-gradient"/>
  </defs>
  <circle id="Эллипс_4" data-name="Эллипс 4" class="cls-1" cx="64" cy="16.5" r="16"/>
  <circle id="Эллипс_4_копия_2" data-name="Эллипс 4 копия 2" class="cls-2" cx="64" cy="16.5" r="10"/>
  <rect id="Прямоугольник_7_копия_2" data-name="Прямоугольник 7 копия 2" class="cls-3" y="16.5" width="37" height="1"/>
</svg>
